unit_conversion – qatarcars
…
# Performance conversions
kmh100_to_mph60(6.5)

[1] 6.276442

mph60_to_kmh100(5.85)

[1] 6.058369

qatarcars$length_ft <- m_to_ft(qatarcars$length)
qatarcars$economy_mpg <- lp100km_to_mpg(qatarcars$economy)
qatarcars[, c("origin", "make", "model", "length", "length_ft", "economy", "economy_mpg")]

# A tibble: 105 × 7
   origin  make     model          length length_ft economy economy_mpg
   <fct>   <fct>    <fct>           <dbl>     <dbl>   <dbl>       <dbl>
 1 Germany BMW      3 Series Sedan   4.71      15.5     7.6        30.9
 2 Germany BMW      X1               4.50      14.8     6.6        35.6
 3 Germany Audi     RS Q8            5.01      16.4    12.1        19.4
 4 Germany Audi     RS3              4.54      14.9     8.7        27.0
 5 Germany Audi     A3               4.46      14.6     6.5        36.2
 6 Germany Mercedes Maybach          5.47      17.9    13.3        17.7
 7 Germany Mercedes G-Wagon          4.61      15.1    13.1        18.0
 8 Germany Mercedes EQS              5.22      17.1    NA          NA  
 9 Germany Mercedes GLA              4.41      14.5     5.6        42.0
10 Germany Mercedes GLB 200          4.63      15.2     7.5        31.4
# ℹ 95 more rows
…
str(qatarcars$economy_mpg)

 num [1:105] 30.9 35.6 19.4 27 36.2 ...
 - attr(*, "label")= chr "Fuel Economy (mpg)"

if (require("dplyr")) {
  qatarcars |> 
    mutate(
      length_ft = m_to_ft(length),
      economy_mpg = lp100km_to_mpg(economy)
    ) |> 
    select(origin, make, model, length, length_ft, economy, economy_mpg)
}

# A tibble: 105 × 7
   origin  make     model          length length_ft economy economy_mpg
   <fct>   <fct>    <fct>           <dbl>     <dbl>   <dbl>       <dbl>
 1 Germany BMW      3 Series Sedan   4.71      15.5     7.6        30.9
 2 Germany BMW      X1               4.50      14.8     6.6        35.6
 3 Germany Audi     RS Q8            5.01      16.4    12.1        19.4
 4 Germany Audi     RS3              4.54      14.9     8.7        27.0
 5 Germany Audi     A3               4.46      14.6     6.5        36.2
 6 Germany Mercedes Maybach          5.47      17.9    13.3        17.7
 7 Germany Mercedes G-Wagon          4.61      15.1    13.1        18.0
 8 Germany Mercedes EQS              5.22      17.1    NA          NA  
 9 Germany Mercedes GLA              4.41      14.5     5.6        42.0
10 Germany Mercedes GLB 200          4.63      15.2     7.5        31.4
# ℹ 95 more rows
…
