…
## Usage

### Load data

Similar to other data-only R packages like
[{gapminder}](https://jennybc.github.io/gapminder/) and
[{palmerpenguins}](https://allisonhorst.github.io/palmerpenguins/), load
the data by running `library(qatarcars)`:

``` r
library(qatarcars)

qatarcars
#> # A tibble: 105 × 15
#>    origin  make     model   length width height seating trunk economy horsepower
#>    <fct>   <fct>    <fct>    <dbl> <dbl>  <dbl>   <dbl> <dbl>   <dbl>      <dbl>
#>  1 Germany BMW      3 Seri…   4.71  1.83   1.44       5    59     7.6        386
#>  2 Germany BMW      X1        4.50  1.84   1.64       5   505     6.6        313
#>  3 Germany Audi     RS Q8     5.01  1.69   2.00       5   605    12.1        600
#>  4 Germany Audi     RS3       4.54  1.85   1.41       5   321     8.7        400
#>  5 Germany Audi     A3        4.46  1.96   1.42       5   425     6.5        180
#>  6 Germany Mercedes Maybach   5.47  1.92   1.51       4   500    13.3        612
#>  7 Germany Mercedes G-Wagon   4.61  1.98   1.97       5   480    13.1        585
#>  8 Germany Mercedes EQS       5.22  1.93   1.51       5   610    NA          333
#>  9 Germany Mercedes GLA       4.41  1.83   1.61       5   435     5.6        163
#> 10 Germany Mercedes GLB 200   4.63  4.63   1.66       5   565     7.5        221
#> # ℹ 95 more rows
#> # ℹ 5 more variables: price <dbl>, mass <dbl>, performance <dbl>, type <fct>,
#> #   enginetype <fct>
```
…
- From QAR: `qar_to_usd()` and `qar_to_eur()`
- From USD: `usd_to_qar()` and `usd_to_eur()`
- From EUR: `eur_to_qar()` and `eur_to_usd()`

``` r
library(dplyr)

qatarcars |>
  mutate(
    price_eur = qar_to_eur(price),
    price_usd = qar_to_usd(price)
  ) |>
  select(origin, make, model, starts_with("price"))
#> # A tibble: 105 × 6
#>    origin  make     model            price price_eur price_usd
#>    <fct>   <fct>    <fct>            <dbl>     <dbl>     <dbl>
#>  1 Germany BMW      3 Series Sedan  164257    39580     45126.
#>  2 Germany BMW      X1              264000    63614.    72527.
#>  3 Germany Audi     RS Q8           630000   151807.   173077.
#>  4 Germany Audi     RS3             310000    74699.    85165.
#>  5 Germany Audi     A3              165000    39759.    45330.
#>  6 Germany Mercedes Maybach        1281000   308675.   351923.
#>  7 Germany Mercedes G-Wagon        1011500   243735.   277885.
#>  8 Germany Mercedes EQS             564500   136024.   155082.
#>  9 Germany Mercedes GLA             209500    50482.    57555.
#> 10 Germany Mercedes GLB 200         168997    40722.    46428.
#> # ℹ 95 more rows
```
…
